201712111105.20	chicken/CHICKEN.icns
201712111105.20	chicken/GNUmakefile
201712111105.20	chicken/Makefile
201712111105.20	chicken/banner.scm
201712111105.20	chicken/chicken.ico
201712111105.20	chicken/chicken.png
201712111105.20	chicken/chicken.rc
201712111105.20	chicken/config-arch.sh
201712111105.20	chicken/csibatch.bat
201712111105.20	chicken/debugger-client.scm
201712111105.20	chicken/feathers.bat.in
201712111105.20	chicken/feathers.in
201712111105.20	chicken/feathers.tcl
201712111105.20	chicken/irregex-utils.scm
201712111105.20	chicken/mac.r
201712111105.20	chicken/scripts/chicken-flymake
201712111105.20	chicken/scripts/chicken-flymake.bat
201712111105.20	chicken/scripts/csc-trans
201712111105.20	chicken/tests/QUEUE.scm
201712111105.20	chicken/tests/callback-tests.scm
201712111105.20	chicken/tests/compiler-syntax-tests.scm
201712111105.20	chicken/tests/compiler.scm
201712111105.20	chicken/tests/dwindtst.expected
201712111105.20	chicken/tests/dwindtst.scm
201712111105.20	chicken/tests/ec-tests.scm
201712111105.20	chicken/tests/ec.scm
201712111105.20	chicken/tests/embedded1.c
201712111105.20	chicken/tests/heap-literal-stress-test.scm
201712111105.20	chicken/tests/import-library-test1.scm
201712111105.20	chicken/tests/inlining-tests.scm
201712111105.20	chicken/tests/matchable.scm
201712111105.20	chicken/tests/null.scm
201712111105.20	chicken/tests/r5rs_pitfalls.scm
201712111105.20	chicken/tests/re-tests.txt
201712111105.20	chicken/tests/records-and-setters-test.scm
201712111105.20	chicken/tests/reexport-m3.scm
201712111105.20	chicken/tests/reexport-m5.scm
201712111105.20	chicken/tests/scrutiny-tests-2.scm
201712111105.20	chicken/tests/scrutiny-tests-strict.scm
201712111105.20	chicken/tests/slatex.scm
201712111105.20	chicken/tests/slatex.sty
201712111105.20	chicken/tests/specialization-test-2.types
201712111105.20	chicken/tests/square-functor.scm
201712111105.20	chicken/tests/syntax-rule-stress-test.scm
201712111105.20	chicken/tests/syntax-tests-2.scm
201712111105.20	chicken/tests/test-optional.scm
201712111105.20	chicken/tests/test.tex
201712111105.20	chicken/tests/use-square-functor.scm
201712111646.55	chicken/LICENSE
201712111646.55	chicken/Makefile.aix
201712111646.55	chicken/Makefile.android
201712111646.55	chicken/Makefile.cross-linux-mingw
201712111646.55	chicken/Makefile.cygwin
201712111646.55	chicken/Makefile.haiku
201712111646.55	chicken/Makefile.hurd
201712111646.55	chicken/Makefile.ios
201712111646.55	chicken/Makefile.linux
201712111646.55	chicken/Makefile.macosx
201712111646.55	chicken/Makefile.mingw
201712111646.55	chicken/Makefile.mingw-msys
201712111646.55	chicken/Makefile.solaris
201712111646.55	chicken/batch-driver.scm
201712111646.55	chicken/build-version.scm
201712111646.55	chicken/c-platform.scm
201712111646.55	chicken/chicken-bug.1
201712111646.55	chicken/chicken-bug.scm
201712111646.55	chicken/chicken-install.1
201712111646.55	chicken/chicken-install.scm
201712111646.55	chicken/chicken-profile.1
201712111646.55	chicken/chicken-profile.scm
201712111646.55	chicken/chicken-status.1
201712111646.55	chicken/chicken-status.scm
201712111646.55	chicken/chicken-syntax.scm
201712111646.55	chicken/chicken-uninstall.1
201712111646.55	chicken/chicken-uninstall.scm
201712111646.55	chicken/chicken.1
201712111646.55	chicken/chicken.import.scm
201712111646.55	chicken/chicken.scm
201712111646.55	chicken/common-declarations.scm
201712111646.55	chicken/compiler-namespace.scm
201712111646.55	chicken/compiler-syntax.scm
201712111646.55	chicken/compiler.scm
201712111646.55	chicken/config.make
201712111646.55	chicken/csc.1
201712111646.55	chicken/csc.scm
201712111646.55	chicken/csi.1
201712111646.55	chicken/csi.import.scm
201712111646.55	chicken/csi.scm
201712111646.55	chicken/data-structures.import.scm
201712111646.55	chicken/data-structures.scm
201712111646.55	chicken/dbg-stub.c
201712111646.55	chicken/defaults.make
201712111646.55	chicken/eval.scm
201712111646.55	chicken/extras.import.scm
201712111646.55	chicken/extras.scm
201712111646.55	chicken/feathers.1
201712111646.55	chicken/files.import.scm
201712111646.55	chicken/files.scm
201712111646.55	chicken/foreign.import.scm
201712111646.55	chicken/identify.sh
201712111646.55	chicken/irregex.import.scm
201712111646.55	chicken/irregex.scm
201712111646.55	chicken/lolevel.import.scm
201712111646.55	chicken/lolevel.scm
201712111646.55	chicken/modules.scm
201712111646.55	chicken/optimizer.scm
201712111646.55	chicken/ports.import.scm
201712111646.55	chicken/ports.scm
201712111646.55	chicken/posix-common.scm
201712111646.55	chicken/posix.import.scm
201712111646.55	chicken/posixwin.scm
201712111646.55	chicken/private-namespace.scm
201712111646.55	chicken/profiler.scm
201712111646.55	chicken/scripts/compile-all
201712111646.55	chicken/scripts/make-wrapper.scm
201712111646.55	chicken/scripts/makedist.scm
201712111646.55	chicken/scripts/mini-salmonella.scm
201712111646.55	chicken/scripts/reconstruct-egg-name.scm
201712111646.55	chicken/setup-api.scm
201712111646.55	chicken/setup-download.scm
201712111646.55	chicken/setup.defaults
201712111646.55	chicken/srfi-1.import.scm
201712111646.55	chicken/srfi-1.scm
201712111646.55	chicken/srfi-13.import.scm
201712111646.55	chicken/srfi-13.scm
201712111646.55	chicken/srfi-14.import.scm
201712111646.55	chicken/srfi-14.scm
201712111646.55	chicken/srfi-18.import.scm
201712111646.55	chicken/srfi-18.scm
201712111646.55	chicken/srfi-4.import.scm
201712111646.55	chicken/srfi-69.import.scm
201712111646.55	chicken/srfi-69.scm
201712111646.55	chicken/stub.scm
201712111646.55	chicken/synrules.scm
201712111646.55	chicken/tcp.import.scm
201712111646.55	chicken/tcp.scm
201712111646.55	chicken/tests/apply-test.scm
201712111646.55	chicken/tests/arithmetic-test.32.expected
201712111646.55	chicken/tests/arithmetic-test.64.expected
201712111646.55	chicken/tests/arithmetic-test.scm
201712111646.55	chicken/tests/breadth-first.scm
201712111646.55	chicken/tests/condition-tests.scm
201712111646.55	chicken/tests/data-structures-tests.scm
201712111646.55	chicken/tests/embedded2.scm
201712111646.55	chicken/tests/embedded3.c
201712111646.55	chicken/tests/embedded4.scm
201712111646.55	chicken/tests/environment-tests.scm
201712111646.55	chicken/tests/feeley-dynwind.scm
201712111646.55	chicken/tests/fft.scm
201712111646.55	chicken/tests/finalizer-error-test.scm
201712111646.55	chicken/tests/fixnum-tests.scm
201712111646.55	chicken/tests/functor-tests.scm
201712111646.55	chicken/tests/gobble.scm
201712111646.55	chicken/tests/hash-table-tests.scm
201712111646.55	chicken/tests/import-library-test2.scm
201712111646.55	chicken/tests/import-tests.scm
201712111646.55	chicken/tests/locative-stress-test.scm
201712111646.55	chicken/tests/lolevel-tests.scm
201712111646.55	chicken/tests/loopy-loop.scm
201712111646.55	chicken/tests/loopy-test.scm
201712111646.55	chicken/tests/match-test.scm
201712111646.55	chicken/tests/meta-syntax-test.scm
201712111646.55	chicken/tests/module-tests-2.scm
201712111646.55	chicken/tests/module-tests-compiled.scm
201712111646.55	chicken/tests/module-tests.scm
201712111646.55	chicken/tests/mutex-test.scm
201712111646.55	chicken/tests/numbers-string-conversion-tests.scm
201712111646.55	chicken/tests/path-tests.scm
201712111646.55	chicken/tests/posix-tests.scm
201712111646.55	chicken/tests/pp-test.scm
201712111646.55	chicken/tests/private-repository-test.scm
201712111646.55	chicken/tests/r4rstest.out
201712111646.55	chicken/tests/r4rstest.scm
201712111646.55	chicken/tests/r7rs-tests.scm
201712111646.55	chicken/tests/reader-tests.scm
201712111646.55	chicken/tests/reexport-m1.scm
201712111646.55	chicken/tests/reexport-m2.scm
201712111646.55	chicken/tests/reexport-m4.scm
201712111646.55	chicken/tests/reexport-m6.scm
201712111646.55	chicken/tests/reexport-tests-2.scm
201712111646.55	chicken/tests/reexport-tests.scm
201712111646.55	chicken/tests/rev-app.scm
201712111646.55	chicken/tests/reverser/tags/1.0/reverser.meta
201712111646.55	chicken/tests/reverser/tags/1.0/reverser.scm
201712111646.55	chicken/tests/reverser/tags/1.0/reverser.setup
201712111646.55	chicken/tests/reverser/tags/1.1/reverser.meta
201712111646.55	chicken/tests/reverser/tags/1.1/reverser.scm
201712111646.55	chicken/tests/reverser/tags/1.1/reverser.setup
201712111646.55	chicken/tests/runbench.sh
201712111646.55	chicken/tests/runtests.bat
201712111646.55	chicken/tests/runtests.sh
201712111646.55	chicken/tests/scrutiny-tests.scm
201712111646.55	chicken/tests/scrutiny.expected
201712111646.55	chicken/tests/sgrep.scm
201712111646.55	chicken/tests/signal-tests.scm
201712111646.55	chicken/tests/simple-functors-test.scm
201712111646.55	chicken/tests/simple-thread-test.scm
201712111646.55	chicken/tests/specialization-test-1.scm
201712111646.55	chicken/tests/specialization-test-2.scm
201712111646.55	chicken/tests/specialization-tests.scm
201712111646.55	chicken/tests/specialization.expected
201712111646.55	chicken/tests/srfi-13-tests.scm
201712111646.55	chicken/tests/srfi-14-tests.scm
201712111646.55	chicken/tests/srfi-18-signal-test.scm
201712111646.55	chicken/tests/srfi-45-tests.scm
201712111646.55	chicken/tests/symbolgc-tests.scm
201712111646.55	chicken/tests/test-chained-modules.scm
201712111646.55	chicken/tests/test-finalizers-2.scm
201712111646.55	chicken/tests/test-finalizers.scm
201712111646.55	chicken/tests/test-find-files.scm
201712111646.55	chicken/tests/test-gc-hooks.scm
201712111646.55	chicken/tests/test-glob.scm
201712111646.55	chicken/tests/test-queue.scm
201712111646.55	chicken/tests/test.scm
201712111646.55	chicken/tests/thread-list.scm
201712111646.55	chicken/tests/version-tests.scm
201712111646.55	chicken/tweaks.scm
201712111646.55	chicken/utils.import.scm
201712111646.55	chicken/utils.scm
201712111648.05	chicken/Makefile.bsd
201712111648.05	chicken/NEWS
201712111648.05	chicken/c-backend.scm
201712111648.05	chicken/chicken-ffi-syntax.scm
201712111648.05	chicken/expand.scm
201712111648.05	chicken/irregex-core.scm
201712111648.05	chicken/lfa2.scm
201712111648.05	chicken/library.scm
201712111648.05	chicken/posixunix.scm
201712111648.05	chicken/rules.make
201712111648.05	chicken/runtime.c
201712111648.05	chicken/scheduler.scm
201712111648.05	chicken/scrutinizer.scm
201712111648.05	chicken/srfi-4.scm
201712111648.05	chicken/support.scm
201712111648.05	chicken/tests/compiler-tests.scm
201712111648.05	chicken/tests/library-tests.scm
201712111648.05	chicken/tests/port-tests.scm
201712111648.05	chicken/tests/scrutiny-tests-3.scm
201712111648.05	chicken/tests/srfi-4-tests.scm
201712111648.05	chicken/tests/syntax-tests.scm
201712111648.05	chicken/tests/test-irregex.scm
201712111648.05	chicken/tests/typematch-tests.scm
201712111648.05	chicken/types.db
201712111649.13	chicken/README
201712111649.13	chicken/buildversion
201712111649.13	chicken/chicken.h
201712111650.23	chicken/batch-driver.c
201712111650.23	chicken/build-version.c
201712111650.23	chicken/buildbranch
201712111650.23	chicken/buildid
201712111650.23	chicken/buildtag.h
201712111650.24	chicken/c-backend.c
201712111650.25	chicken/c-platform.c
201712111650.25	chicken/chicken-bug.c
201712111650.25	chicken/chicken-ffi-syntax.c
201712111650.26	chicken/setup-api.c
201712111650.26	chicken/setup-api.import.scm
201712111650.26	chicken/setup-download.import.scm
201712111650.27	chicken/setup-download.c
201712111650.28	chicken/chicken-install.c
201712111650.28	chicken/chicken-profile.c
201712111650.28	chicken/chicken-status.c
201712111650.30	chicken/chicken-syntax.c
201712111650.30	chicken/chicken-uninstall.c
201712111650.30	chicken/chicken.c
201712111650.30	chicken/chicken.import.c
201712111650.30	chicken/compiler-syntax.c
201712111650.33	chicken/compiler.c
201712111650.34	chicken/csc.c
201712111650.35	chicken/csi.c
201712111650.35	chicken/csi.import.c
201712111650.35	chicken/data-structures.c
201712111650.35	chicken/data-structures.import.c
201712111650.35	chicken/debugger-client.c
201712111650.37	chicken/eval.c
201712111650.38	chicken/expand.c
201712111650.39	chicken/extras.c
201712111650.39	chicken/extras.import.c
201712111650.39	chicken/files.c
201712111650.39	chicken/files.import.c
201712111650.39	chicken/foreign.import.c
201712111650.44	chicken/irregex.c
201712111650.45	chicken/irregex.import.c
201712111650.45	chicken/lfa2.c
201712111650.49	chicken/library.c
201712111650.50	chicken/lolevel.c
201712111650.50	chicken/lolevel.import.c
201712111650.51	chicken/modules.c
201712111650.52	chicken/optimizer.c
201712111650.52	chicken/ports.c
201712111650.52	chicken/ports.import.c
201712111650.52	chicken/posix.import.c
201712111650.54	chicken/posixunix.c
201712111650.54	chicken/posixwin.c
201712111650.55	chicken/profiler.c
201712111650.55	chicken/scheduler.c
201712111650.58	chicken/scrutinizer.c
201712111650.58	chicken/setup-api.import.c
201712111650.58	chicken/setup-download.import.c
201712111650.59	chicken/srfi-1.c
201712111650.59	chicken/srfi-1.import.c
201712111651.00	chicken/srfi-13.c
201712111651.00	chicken/srfi-13.import.c
201712111651.01	chicken/srfi-14.c
201712111651.01	chicken/srfi-14.import.c
201712111651.01	chicken/srfi-18.c
201712111651.01	chicken/srfi-18.import.c
201712111651.02	chicken/srfi-4.c
201712111651.02	chicken/srfi-4.import.c
201712111651.03	chicken/srfi-69.c
201712111651.03	chicken/srfi-69.import.c
201712111651.03	chicken/stub.c
201712111651.05	chicken/manual-html/Basic mode of operation.html
201712111651.05	chicken/manual-html/Callbacks.html
201712111651.05	chicken/manual-html/Data representation.html
201712111651.05	chicken/manual-html/The User's Manual.html
201712111651.05	chicken/manual-html/Unit files.html
201712111651.05	chicken/manual-html/Unit ports.html
201712111651.05	chicken/manual-html/Unit posix.html
201712111651.05	chicken/manual-html/Unit srfi-1.html
201712111651.05	chicken/manual-html/Unit srfi-14.html
201712111651.05	chicken/manual-html/Unit tcp.html
201712111651.05	chicken/manual-html/Unit utils.html
201712111651.05	chicken/support.c
201712111651.05	chicken/tcp.c
201712111651.05	chicken/tcp.import.c
201712111651.05	chicken/utils.c
201712111651.05	chicken/utils.import.c
201712111651.06	chicken/manual-html/Accessing external objects.html
201712111651.06	chicken/manual-html/Acknowledgements.html
201712111651.06	chicken/manual-html/Bugs and limitations.html
201712111651.06	chicken/manual-html/C interface.html
201712111651.06	chicken/manual-html/Cross development.html
201712111651.06	chicken/manual-html/Debugging.html
201712111651.06	chicken/manual-html/Declarations.html
201712111651.06	chicken/manual-html/Deployment.html
201712111651.06	chicken/manual-html/Deviations from the standard.html
201712111651.06	chicken/manual-html/Embedding.html
201712111651.06	chicken/manual-html/Exceptions.html
201712111651.06	chicken/manual-html/Extensions to the standard.html
201712111651.06	chicken/manual-html/Extensions.html
201712111651.06	chicken/manual-html/Getting started.html
201712111651.06	chicken/manual-html/Locations.html
201712111651.06	chicken/manual-html/Macros.html
201712111651.06	chicken/manual-html/Non-standard macros and special forms.html
201712111651.06	chicken/manual-html/Non-standard read syntax.html
201712111651.06	chicken/manual-html/Parameters.html
201712111651.06	chicken/manual-html/Supported language.html
201712111651.06	chicken/manual-html/The R5RS standard.html
201712111651.06	chicken/manual-html/Unit data-structures.html
201712111651.06	chicken/manual-html/Unit eval.html
201712111651.06	chicken/manual-html/Unit expand.html
201712111651.06	chicken/manual-html/Unit library.html
201712111651.06	chicken/manual-html/Unit lolevel.html
201712111651.06	chicken/manual-html/Unit srfi-18.html
201712111651.06	chicken/manual-html/Unit srfi-4.html
201712111651.06	chicken/manual-html/Unit srfi-69.html
201712111651.06	chicken/manual-html/Using the compiler.html
201712111651.06	chicken/manual-html/Using the interpreter.html
201712111651.06	chicken/manual-html/faq.html
201712111651.07	chicken/manual-html/Bibliography.html
201712111651.07	chicken/manual-html/Foreign type specifiers.html
201712111651.07	chicken/manual-html/Interface to external functions and variables.html
201712111651.07	chicken/manual-html/Modules.html
201712111651.07	chicken/manual-html/Other support procedures.html
201712111651.07	chicken/manual-html/Types.html
201712111651.07	chicken/manual-html/Unit extras.html
201712111651.07	chicken/manual-html/Unit irregex.html
201712111651.07	chicken/manual-html/Unit srfi-13.html
201712111651.07	chicken/manual-html/chicken.png
201712111651.07	chicken/manual-html/index.html
201712111651.07	chicken/manual-html/manual.css