@xrdef{Acknowledgements-title}{Acknowledgements}
@xrdef{Acknowledgements-snt}{}
@xrdef{Acknowledgements-pg}{1}
@xrdef{Overview-title}{Overview}
@xrdef{Overview-snt}{Chapter@tie 1}
@xrdef{Overview-pg}{3}
@xrdef{Notational Conventions-title}{Notational Conventions}
@xrdef{Notational Conventions-snt}{Section@tie 1.1}
@xrdef{Errors-title}{Errors}
@xrdef{Errors-snt}{Section@tie 1.1.1}
@xrdef{Examples-title}{Examples}
@xrdef{Examples-snt}{Section@tie 1.1.2}
@xrdef{Notational Conventions-pg}{4}
@xrdef{Errors-pg}{4}
@xrdef{Examples-pg}{4}
@xrdef{Entry Format-title}{Entry Format}
@xrdef{Entry Format-snt}{Section@tie 1.1.3}
@xrdef{Entry Format-pg}{5}
@xrdef{Scheme Concepts-title}{Scheme Concepts}
@xrdef{Scheme Concepts-snt}{Section@tie 1.2}
@xrdef{Variable Bindings-title}{Variable Bindings}
@xrdef{Variable Bindings-snt}{Section@tie 1.2.1}
@xrdef{Environment Concepts-title}{Environment Concepts}
@xrdef{Environment Concepts-snt}{Section@tie 1.2.2}
@xrdef{Scheme Concepts-pg}{6}
@xrdef{Variable Bindings-pg}{6}
@xrdef{Environment Concepts-pg}{6}
@xrdef{Initial and Current Environments-title}{Initial and Current Environments}
@xrdef{Initial and Current Environments-snt}{Section@tie 1.2.3}
@xrdef{Static Scoping-title}{Static Scoping}
@xrdef{Static Scoping-snt}{Section@tie 1.2.4}
@xrdef{Initial and Current Environments-pg}{7}
@xrdef{Static Scoping-pg}{7}
@xrdef{True and False-title}{True and False}
@xrdef{True and False-snt}{Section@tie 1.2.5}
@xrdef{External Representations-title}{External Representations}
@xrdef{External Representations-snt}{Section@tie 1.2.6}
@xrdef{True and False-pg}{8}
@xrdef{External Representations-pg}{8}
@xrdef{Disjointness of Types-title}{Disjointness of Types}
@xrdef{Disjointness of Types-snt}{Section@tie 1.2.7}
@xrdef{Storage Model-title}{Storage Model}
@xrdef{Storage Model-snt}{Section@tie 1.2.8}
@xrdef{Lexical Conventions-title}{Lexical Conventions}
@xrdef{Lexical Conventions-snt}{Section@tie 1.3}
@xrdef{Whitespace-title}{Whitespace}
@xrdef{Whitespace-snt}{Section@tie 1.3.1}
@xrdef{Disjointness of Types-pg}{9}
@xrdef{Storage Model-pg}{9}
@xrdef{Lexical Conventions-pg}{9}
@xrdef{Whitespace-pg}{9}
@xrdef{Delimiters-title}{Delimiters}
@xrdef{Delimiters-snt}{Section@tie 1.3.2}
@xrdef{Identifiers-title}{Identifiers}
@xrdef{Identifiers-snt}{Section@tie 1.3.3}
@xrdef{Uppercase and Lowercase-title}{Uppercase and Lowercase}
@xrdef{Uppercase and Lowercase-snt}{Section@tie 1.3.4}
@xrdef{Naming Conventions-title}{Naming Conventions}
@xrdef{Naming Conventions-snt}{Section@tie 1.3.5}
@xrdef{Comments-title}{Comments}
@xrdef{Comments-snt}{Section@tie 1.3.6}
@xrdef{Delimiters-pg}{10}
@xrdef{Identifiers-pg}{10}
@xrdef{Uppercase and Lowercase-pg}{10}
@xrdef{Naming Conventions-pg}{10}
@xrdef{Additional Notations-title}{Additional Notations}
@xrdef{Additional Notations-snt}{Section@tie 1.3.7}
@xrdef{Comments-pg}{11}
@xrdef{Additional Notations-pg}{11}
@xrdef{Expressions-title}{Expressions}
@xrdef{Expressions-snt}{Section@tie 1.4}
@xrdef{Literal Expressions-title}{Literal Expressions}
@xrdef{Literal Expressions-snt}{Section@tie 1.4.1}
@xrdef{Expressions-pg}{12}
@xrdef{Variable References-title}{Variable References}
@xrdef{Variable References-snt}{Section@tie 1.4.2}
@xrdef{Special Form Syntax-title}{Special Form Syntax}
@xrdef{Special Form Syntax-snt}{Section@tie 1.4.3}
@xrdef{Procedure Call Syntax-title}{Procedure Call Syntax}
@xrdef{Procedure Call Syntax-snt}{Section@tie 1.4.4}
@xrdef{Literal Expressions-pg}{13}
@xrdef{Variable References-pg}{13}
@xrdef{Special Form Syntax-pg}{13}
@xrdef{Procedure Call Syntax-pg}{13}
@xrdef{Special Forms-title}{Special Forms}
@xrdef{Special Forms-snt}{Chapter@tie 2}
@xrdef{Lambda Expressions-title}{Lambda Expressions}
@xrdef{Lambda Expressions-snt}{Section@tie 2.1}
@xrdef{Special Forms-pg}{15}
@xrdef{Lambda Expressions-pg}{15}
@xrdef{Lexical Binding-title}{Lexical Binding}
@xrdef{Lexical Binding-snt}{Section@tie 2.2}
@xrdef{Lexical Binding-pg}{17}
@xrdef{Dynamic Binding-title}{Dynamic Binding}
@xrdef{Dynamic Binding-snt}{Section@tie 2.3}
@xrdef{parameterize-title}{Dynamic Binding}
@xrdef{parameterize-snt}{}
@xrdef{Dynamic Binding-pg}{20}
@xrdef{parameterize-pg}{20}
@xrdef{Definitions-title}{Definitions}
@xrdef{Definitions-snt}{Section@tie 2.4}
@xrdef{Definitions-pg}{22}
@xrdef{Top-Level Definitions-title}{Top-Level Definitions}
@xrdef{Top-Level Definitions-snt}{Section@tie 2.4.1}
@xrdef{Internal Definitions-title}{Internal Definitions}
@xrdef{Internal Definitions-snt}{Section@tie 2.4.2}
@xrdef{Top-Level Definitions-pg}{23}
@xrdef{Internal Definitions-pg}{23}
@xrdef{Assignments-title}{Assignments}
@xrdef{Assignments-snt}{Section@tie 2.5}
@xrdef{Quoting-title}{Quoting}
@xrdef{Quoting-snt}{Section@tie 2.6}
@xrdef{Assignments-pg}{24}
@xrdef{Quoting-pg}{24}
@xrdef{Conditionals-title}{Conditionals}
@xrdef{Conditionals-snt}{Section@tie 2.7}
@xrdef{Conditionals-pg}{26}
@xrdef{Sequencing-title}{Sequencing}
@xrdef{Sequencing-snt}{Section@tie 2.8}
@xrdef{Sequencing-pg}{28}
@xrdef{Iteration-title}{Iteration}
@xrdef{Iteration-snt}{Section@tie 2.9}
@xrdef{Iteration-pg}{29}
@xrdef{Structure Definitions-title}{Structure Definitions}
@xrdef{Structure Definitions-snt}{Section@tie 2.10}
@xrdef{Structure Definitions-pg}{31}
@xrdef{Macros-title}{Macros}
@xrdef{Macros-snt}{Section@tie 2.11}
@xrdef{Macros-pg}{36}
@xrdef{Syntactic Binding Constructs-title}{Binding Constructs for Syntactic Keywords}
@xrdef{Syntactic Binding Constructs-snt}{Section@tie 2.11.1}
@xrdef{Syntactic Binding Constructs-pg}{37}
@xrdef{Pattern Language-title}{Pattern Language}
@xrdef{Pattern Language-snt}{Section@tie 2.11.2}
@xrdef{Pattern Language-pg}{40}
@xrdef{Syntactic Closures-title}{Syntactic Closures}
@xrdef{Syntactic Closures-snt}{Section@tie 2.11.3}
@xrdef{Syntax Terminology-title}{Syntax Terminology}
@xrdef{Syntax Terminology-snt}{Section@tie 2.11.3.1}
@xrdef{Syntactic Closures-pg}{42}
@xrdef{Syntax Terminology-pg}{42}
@xrdef{SC Transformer Definition-title}{Transformer Definition}
@xrdef{SC Transformer Definition-snt}{Section@tie 2.11.3.2}
@xrdef{SC Transformer Definition-pg}{43}
@xrdef{SC Identifiers-title}{Identifiers}
@xrdef{SC Identifiers-snt}{Section@tie 2.11.3.3}
@xrdef{SC Identifiers-pg}{47}
@xrdef{Explicit Renaming-title}{Explicit Renaming}
@xrdef{Explicit Renaming-snt}{Section@tie 2.11.4}
@xrdef{Explicit Renaming-pg}{49}
@xrdef{SRFI syntax-title}{SRFI syntax}
@xrdef{SRFI syntax-snt}{Section@tie 2.12}
@xrdef{cond-expand (SRFI 0)-title}{cond-expand (SRFI 0)}
@xrdef{cond-expand (SRFI 0)-snt}{Section@tie 2.12.1}
@xrdef{SRFI syntax-pg}{51}
@xrdef{receive (SRFI 8)-title}{receive (SRFI 8)}
@xrdef{receive (SRFI 8)-snt}{Section@tie 2.12.2}
@xrdef{cond-expand (SRFI 0)-pg}{52}
@xrdef{receive (SRFI 8)-pg}{53}
@xrdef{and-let* (SRFI 2)-title}{and-let* (SRFI 2)}
@xrdef{and-let* (SRFI 2)-snt}{Section@tie 2.12.3}
@xrdef{define-record-type (SRFI 9)-title}{define-record-type (SRFI 9)}
@xrdef{define-record-type (SRFI 9)-snt}{Section@tie 2.12.4}
@xrdef{and-let* (SRFI 2)-pg}{54}
@xrdef{define-record-type (SRFI 9)-pg}{54}
@xrdef{Equivalence Predicates-title}{Equivalence Predicates}
@xrdef{Equivalence Predicates-snt}{Chapter@tie 3}
@xrdef{Equivalence Predicates-pg}{57}
@xrdef{Numbers-title}{Numbers}
@xrdef{Numbers-snt}{Chapter@tie 4}
@xrdef{Numerical types-title}{Numerical types}
@xrdef{Numerical types-snt}{Section@tie 4.1}
@xrdef{Exactness-title}{Exactness}
@xrdef{Exactness-snt}{Section@tie 4.2}
@xrdef{Numbers-pg}{63}
@xrdef{Numerical types-pg}{63}
@xrdef{Implementation restrictions-title}{Implementation restrictions}
@xrdef{Implementation restrictions-snt}{Section@tie 4.3}
@xrdef{Exactness-pg}{64}
@xrdef{Implementation restrictions-pg}{64}
@xrdef{Syntax of numerical constants-title}{Syntax of numerical constants}
@xrdef{Syntax of numerical constants-snt}{Section@tie 4.4}
@xrdef{Numerical operations-title}{Numerical operations}
@xrdef{Numerical operations-snt}{Section@tie 4.5}
@xrdef{Syntax of numerical constants-pg}{66}
@xrdef{Numerical operations-pg}{66}
@xrdef{Numerical input and output-title}{Numerical input and output}
@xrdef{Numerical input and output-snt}{Section@tie 4.6}
@xrdef{Numerical input and output-pg}{78}
@xrdef{Fixnum and Flonum Operations-title}{Fixnum and Flonum Operations}
@xrdef{Fixnum and Flonum Operations-snt}{Section@tie 4.7}
@xrdef{Fixnum Operations-title}{Fixnum Operations}
@xrdef{Fixnum Operations-snt}{Section@tie 4.7.1}
@xrdef{Fixnum and Flonum Operations-pg}{81}
@xrdef{Fixnum Operations-pg}{81}
@xrdef{Flonum Operations-title}{Flonum Operations}
@xrdef{Flonum Operations-snt}{Section@tie 4.7.2}
@xrdef{Flonum Operations-pg}{83}
@xrdef{Floating-Point Environment-title}{Floating-Point Environment}
@xrdef{Floating-Point Environment-snt}{Section@tie 4.7.3}
@xrdef{Floating-Point Environment-pg}{91}
@xrdef{Floating-Point Exceptions-title}{Floating-Point Exceptions}
@xrdef{Floating-Point Exceptions-snt}{Section@tie 4.7.4}
@xrdef{Floating-Point Exceptions-pg}{92}
@xrdef{Floating-Point Rounding Mode-title}{Floating-Point Rounding Mode}
@xrdef{Floating-Point Rounding Mode-snt}{Section@tie 4.7.5}
@xrdef{Floating-Point Rounding Mode-pg}{95}
@xrdef{Random Number Generation-title}{Random Number Generation}
@xrdef{Random Number Generation-snt}{Section@tie 4.8}
@xrdef{Random Number Generation-pg}{96}
@xrdef{Characters-title}{Characters}
@xrdef{Characters-snt}{Chapter@tie 5}
@xrdef{Characters-pg}{101}
@xrdef{Character implementation-title}{Character implementation}
@xrdef{Character implementation-snt}{Section@tie 5.1}
@xrdef{Character implementation-pg}{104}
@xrdef{Unicode-title}{Unicode}
@xrdef{Unicode-snt}{Section@tie 5.2}
@xrdef{Unicode-pg}{105}
@xrdef{Character Sets-title}{Character Sets}
@xrdef{Character Sets-snt}{Section@tie 5.3}
@xrdef{Character Sets-pg}{107}
@xrdef{Strings-title}{Strings}
@xrdef{Strings-snt}{Chapter@tie 6}
@xrdef{Strings-pg}{109}
@xrdef{Searching and Matching Strings-title}{Searching and Matching Strings}
@xrdef{Searching and Matching Strings-snt}{Section@tie 6.1}
@xrdef{Searching and Matching Strings-pg}{121}
@xrdef{Regular Expressions-title}{Regular Expressions}
@xrdef{Regular Expressions-snt}{Section@tie 6.2}
@xrdef{Regular S-Expressions-title}{Regular S-Expressions}
@xrdef{Regular S-Expressions-snt}{Section@tie 6.2.1}
@xrdef{Regular Expressions-pg}{124}
@xrdef{Regular S-Expressions-pg}{124}
@xrdef{Regsexp Procedures-title}{Regsexp Procedures}
@xrdef{Regsexp Procedures-snt}{Section@tie 6.2.2}
@xrdef{Regsexp Procedures-pg}{129}
@xrdef{Lists-title}{Lists}
@xrdef{Lists-snt}{Chapter@tie 7}
@xrdef{Lists-pg}{131}
@xrdef{Pairs-title}{Pairs}
@xrdef{Pairs-snt}{Section@tie 7.1}
@xrdef{Pairs-pg}{132}
@xrdef{Construction of Lists-title}{Construction of Lists}
@xrdef{Construction of Lists-snt}{Section@tie 7.2}
@xrdef{Construction of Lists-pg}{134}
@xrdef{Selecting List Components-title}{Selecting List Components}
@xrdef{Selecting List Components-snt}{Section@tie 7.3}
@xrdef{Selecting List Components-pg}{136}
@xrdef{Cutting and Pasting Lists-title}{Cutting and Pasting Lists}
@xrdef{Cutting and Pasting Lists-snt}{Section@tie 7.4}
@xrdef{Cutting and Pasting Lists-pg}{137}
@xrdef{Filtering Lists-title}{Filtering Lists}
@xrdef{Filtering Lists-snt}{Section@tie 7.5}
@xrdef{Filtering Lists-pg}{139}
@xrdef{Searching Lists-title}{Searching Lists}
@xrdef{Searching Lists-snt}{Section@tie 7.6}
@xrdef{Searching Lists-pg}{140}
@xrdef{Mapping of Lists-title}{Mapping of Lists}
@xrdef{Mapping of Lists-snt}{Section@tie 7.7}
@xrdef{Mapping of Lists-pg}{141}
@xrdef{Folding of Lists-title}{Folding of Lists}
@xrdef{Folding of Lists-snt}{Section@tie 7.8}
@xrdef{Folding of Lists-pg}{144}
@xrdef{Miscellaneous List Operations-title}{Miscellaneous List Operations}
@xrdef{Miscellaneous List Operations-snt}{Section@tie 7.9}
@xrdef{Miscellaneous List Operations-pg}{146}
@xrdef{Vectors-title}{Vectors}
@xrdef{Vectors-snt}{Chapter@tie 8}
@xrdef{Construction of Vectors-title}{Construction of Vectors}
@xrdef{Construction of Vectors-snt}{Section@tie 8.1}
@xrdef{Vectors-pg}{149}
@xrdef{Construction of Vectors-pg}{149}
@xrdef{Selecting Vector Components-title}{Selecting Vector Components}
@xrdef{Selecting Vector Components-snt}{Section@tie 8.2}
@xrdef{Selecting Vector Components-pg}{150}
@xrdef{Cutting Vectors-title}{Cutting Vectors}
@xrdef{Cutting Vectors-snt}{Section@tie 8.3}
@xrdef{Modifying Vectors-title}{Modifying Vectors}
@xrdef{Modifying Vectors-snt}{Section@tie 8.4}
@xrdef{Cutting Vectors-pg}{151}
@xrdef{Modifying Vectors-pg}{152}
@xrdef{Bit Strings-title}{Bit Strings}
@xrdef{Bit Strings-snt}{Chapter@tie 9}
@xrdef{Construction of Bit Strings-title}{Construction of Bit Strings}
@xrdef{Construction of Bit Strings-snt}{Section@tie 9.1}
@xrdef{Selecting Bit String Components-title}{Selecting Bit String Components}
@xrdef{Selecting Bit String Components-snt}{Section@tie 9.2}
@xrdef{Bit Strings-pg}{153}
@xrdef{Construction of Bit Strings-pg}{153}
@xrdef{Cutting and Pasting Bit Strings-title}{Cutting and Pasting Bit Strings}
@xrdef{Cutting and Pasting Bit Strings-snt}{Section@tie 9.3}
@xrdef{Bitwise Operations on Bit Strings-title}{Bitwise Operations on Bit Strings}
@xrdef{Bitwise Operations on Bit Strings-snt}{Section@tie 9.4}
@xrdef{Selecting Bit String Components-pg}{154}
@xrdef{Cutting and Pasting Bit Strings-pg}{154}
@xrdef{Modification of Bit Strings-title}{Modification of Bit Strings}
@xrdef{Modification of Bit Strings-snt}{Section@tie 9.5}
@xrdef{Bitwise Operations on Bit Strings-pg}{155}
@xrdef{Modification of Bit Strings-pg}{155}
@xrdef{Integer Conversions of Bit Strings-title}{Integer Conversions of Bit Strings}
@xrdef{Integer Conversions of Bit Strings-snt}{Section@tie 9.6}
@xrdef{Integer Conversions of Bit Strings-pg}{156}
@xrdef{Miscellaneous Datatypes-title}{Miscellaneous Datatypes}
@xrdef{Miscellaneous Datatypes-snt}{Chapter@tie 10}
@xrdef{Booleans-title}{Booleans}
@xrdef{Booleans-snt}{Section@tie 10.1}
@xrdef{Miscellaneous Datatypes-pg}{157}
@xrdef{Booleans-pg}{157}
@xrdef{Symbols-title}{Symbols}
@xrdef{Symbols-snt}{Section@tie 10.2}
@xrdef{Symbols-pg}{158}
@xrdef{Parameters-title}{Parameters}
@xrdef{Parameters-snt}{Section@tie 10.3}
@xrdef{Parameters-pg}{161}
@xrdef{Cells-title}{Parameters}
@xrdef{Cells-snt}{}
@xrdef{Records-title}{Records}
@xrdef{Records-snt}{Section@tie 10.4}
@xrdef{Cells-pg}{162}
@xrdef{Records-pg}{162}
@xrdef{Promises-title}{Promises}
@xrdef{Promises-snt}{Section@tie 10.5}
@xrdef{Promises-pg}{164}
@xrdef{Streams-title}{Streams}
@xrdef{Streams-snt}{Section@tie 10.6}
@xrdef{Streams-pg}{166}
@xrdef{Weak References-title}{Weak References}
@xrdef{Weak References-snt}{Section@tie 10.7}
@xrdef{Weak References-pg}{167}
@xrdef{Weak Pairs-title}{Weak Pairs}
@xrdef{Weak Pairs-snt}{Section@tie 10.7.1}
@xrdef{Weak Pairs-pg}{168}
@xrdef{Ephemerons-title}{Ephemerons}
@xrdef{Ephemerons-snt}{Section@tie 10.7.2}
@xrdef{Ephemerons-pg}{169}
@xrdef{Reference barriers-title}{Reference barriers}
@xrdef{Reference barriers-snt}{Section@tie 10.7.3}
@xrdef{Reference barriers-pg}{170}
@xrdef{Associations-title}{Associations}
@xrdef{Associations-snt}{Chapter@tie 11}
@xrdef{Association Lists-title}{Association Lists}
@xrdef{Association Lists-snt}{Section@tie 11.1}
@xrdef{Associations-pg}{171}
@xrdef{Association Lists-pg}{171}
@xrdef{1D Tables-title}{1D Tables}
@xrdef{1D Tables-snt}{Section@tie 11.2}
@xrdef{1D Tables-pg}{173}
@xrdef{The Association Table-title}{The Association Table}
@xrdef{The Association Table-snt}{Section@tie 11.3}
@xrdef{The Association Table-pg}{174}
@xrdef{Hash Tables-title}{Hash Tables}
@xrdef{Hash Tables-snt}{Section@tie 11.4}
@xrdef{Construction of Hash Tables-title}{Construction of Hash Tables}
@xrdef{Construction of Hash Tables-snt}{Section@tie 11.4.1}
@xrdef{Hash Tables-pg}{175}
@xrdef{Construction of Hash Tables-pg}{175}
@xrdef{Basic Hash Table Operations-title}{Basic Hash Table Operations}
@xrdef{Basic Hash Table Operations-snt}{Section@tie 11.4.2}
@xrdef{Basic Hash Table Operations-pg}{181}
@xrdef{Resizing of Hash Tables-title}{Resizing of Hash Tables}
@xrdef{Resizing of Hash Tables-snt}{Section@tie 11.4.3}
@xrdef{Resizing of Hash Tables-pg}{183}
@xrdef{Address Hashing-title}{Address Hashing}
@xrdef{Address Hashing-snt}{Section@tie 11.4.4}
@xrdef{Address Hashing-pg}{185}
@xrdef{Object Hashing-title}{Object Hashing}
@xrdef{Object Hashing-snt}{Section@tie 11.5}
@xrdef{Object Hashing-pg}{186}
@xrdef{Red-Black Trees-title}{Red-Black Trees}
@xrdef{Red-Black Trees-snt}{Section@tie 11.6}
@xrdef{Red-Black Trees-pg}{187}
@xrdef{Weight-Balanced Trees-title}{Weight-Balanced Trees}
@xrdef{Weight-Balanced Trees-snt}{Section@tie 11.7}
@xrdef{Construction of Weight-Balanced Trees-title}{Construction of Weight-Balanced Trees}
@xrdef{Construction of Weight-Balanced Trees-snt}{Section@tie 11.7.1}
@xrdef{Weight-Balanced Trees-pg}{191}
@xrdef{Construction of Weight-Balanced Trees-pg}{191}
@xrdef{Basic Operations on Weight-Balanced Trees-title}{Basic Operations on Weight-Balanced Trees}
@xrdef{Basic Operations on Weight-Balanced Trees-snt}{Section@tie 11.7.2}
@xrdef{Basic Operations on Weight-Balanced Trees-pg}{193}
@xrdef{Advanced Operations on Weight-Balanced Trees-title}{Advanced Operations on Weight-Balanced Trees}
@xrdef{Advanced Operations on Weight-Balanced Trees-snt}{Section@tie 11.7.3}
@xrdef{Advanced Operations on Weight-Balanced Trees-pg}{194}
@xrdef{Indexing Operations on Weight-Balanced Trees-title}{Indexing Operations on Weight-Balanced Trees}
@xrdef{Indexing Operations on Weight-Balanced Trees-snt}{Section@tie 11.7.4}
@xrdef{Indexing Operations on Weight-Balanced Trees-pg}{196}
@xrdef{Associative Maps-title}{Associative Maps}
@xrdef{Associative Maps-snt}{Section@tie 11.8}
@xrdef{Amap constructors-title}{Amap constructors}
@xrdef{Amap constructors-snt}{Section@tie 11.8.1}
@xrdef{Associative Maps-pg}{198}
@xrdef{Amap constructors-pg}{198}
@xrdef{Amap predicates-title}{Amap predicates}
@xrdef{Amap predicates-snt}{Section@tie 11.8.2}
@xrdef{Amap predicates-pg}{199}
@xrdef{Amap accessors-title}{Amap accessors}
@xrdef{Amap accessors-snt}{Section@tie 11.8.3}
@xrdef{Amap mutators-title}{Amap mutators}
@xrdef{Amap mutators-snt}{Section@tie 11.8.4}
@xrdef{Amap accessors-pg}{200}
@xrdef{Amap mutators-pg}{200}
@xrdef{Amap mapping and folding-title}{Amap mapping and folding}
@xrdef{Amap mapping and folding-snt}{Section@tie 11.8.5}
@xrdef{Amap mapping and folding-pg}{201}
@xrdef{Amap contents-title}{Amap contents}
@xrdef{Amap contents-snt}{Section@tie 11.8.6}
@xrdef{Amap copying and conversion-title}{Amap copying and conversion}
@xrdef{Amap copying and conversion-snt}{Section@tie 11.8.7}
@xrdef{Amaps as sets-title}{Amaps as sets}
@xrdef{Amaps as sets-snt}{Section@tie 11.8.8}
@xrdef{Amap contents-pg}{202}
@xrdef{Amap copying and conversion-pg}{202}
@xrdef{Amaps as sets-pg}{203}
@xrdef{Procedures-title}{Procedures}
@xrdef{Procedures-snt}{Chapter@tie 12}
@xrdef{Procedure Operations-title}{Procedure Operations}
@xrdef{Procedure Operations-snt}{Section@tie 12.1}
@xrdef{Procedures-pg}{205}
@xrdef{Procedure Operations-pg}{205}
@xrdef{Arity-title}{Arity}
@xrdef{Arity-snt}{Section@tie 12.2}
@xrdef{Arity-pg}{206}
@xrdef{Primitive Procedures-title}{Primitive Procedures}
@xrdef{Primitive Procedures-snt}{Section@tie 12.3}
@xrdef{Primitive Procedures-pg}{207}
@xrdef{Continuations-title}{Continuations}
@xrdef{Continuations-snt}{Section@tie 12.4}
@xrdef{Continuations-pg}{208}
@xrdef{Application Hooks-title}{Application Hooks}
@xrdef{Application Hooks-snt}{Section@tie 12.5}
@xrdef{Application Hooks-pg}{210}
@xrdef{Environments-title}{Environments}
@xrdef{Environments-snt}{Chapter@tie 13}
@xrdef{Environment Operations-title}{Environment Operations}
@xrdef{Environment Operations-snt}{Section@tie 13.1}
@xrdef{Environments-pg}{213}
@xrdef{Environment Operations-pg}{213}
@xrdef{Environment Variables-title}{Environment Variables}
@xrdef{Environment Variables-snt}{Section@tie 13.2}
@xrdef{REPL Environment-title}{REPL Environment}
@xrdef{REPL Environment-snt}{Section@tie 13.3}
@xrdef{Environment Variables-pg}{215}
@xrdef{REPL Environment-pg}{215}
@xrdef{Top-level Environments-title}{Top-level Environments}
@xrdef{Top-level Environments-snt}{Section@tie 13.4}
@xrdef{Top-level Environments-pg}{216}
@xrdef{Input/Output-title}{Input/Output}
@xrdef{Input/Output-snt}{Chapter@tie 14}
@xrdef{Ports-title}{Ports}
@xrdef{Ports-snt}{Section@tie 14.1}
@xrdef{Input/Output-pg}{217}
@xrdef{Ports-pg}{217}
@xrdef{File Ports-title}{File Ports}
@xrdef{File Ports-snt}{Section@tie 14.2}
@xrdef{File Ports-pg}{219}
@xrdef{String Ports-title}{String Ports}
@xrdef{String Ports-snt}{Section@tie 14.3}
@xrdef{String Ports-pg}{221}
@xrdef{Bytevector Ports-title}{Bytevector Ports}
@xrdef{Bytevector Ports-snt}{Section@tie 14.4}
@xrdef{Input Procedures-title}{Input Procedures}
@xrdef{Input Procedures-snt}{Section@tie 14.5}
@xrdef{Bytevector Ports-pg}{223}
@xrdef{Input Procedures-pg}{223}
@xrdef{reader-controls-title}{Input Procedures}
@xrdef{reader-controls-snt}{}
@xrdef{reader-controls-pg}{227}
@xrdef{Output Procedures-title}{Output Procedures}
@xrdef{Output Procedures-snt}{Section@tie 14.6}
@xrdef{Output Procedures-pg}{228}
@xrdef{Blocking Mode-title}{Blocking Mode}
@xrdef{Blocking Mode-snt}{Section@tie 14.7}
@xrdef{Blocking Mode-pg}{232}
@xrdef{Terminal Mode-title}{Terminal Mode}
@xrdef{Terminal Mode-snt}{Section@tie 14.8}
@xrdef{Terminal Mode-pg}{233}
@xrdef{Format-title}{Format}
@xrdef{Format-snt}{Section@tie 14.9}
@xrdef{Format-pg}{234}
@xrdef{Custom Output-title}{Custom Output}
@xrdef{Custom Output-snt}{Section@tie 14.10}
@xrdef{Custom Output-pg}{236}
@xrdef{Prompting-title}{Prompting}
@xrdef{Prompting-snt}{Section@tie 14.11}
@xrdef{Prompting-pg}{237}
@xrdef{Textual Port Primitives-title}{Textual Port Primitives}
@xrdef{Textual Port Primitives-snt}{Section@tie 14.12}
@xrdef{Textual Port Types-title}{Textual Port Types}
@xrdef{Textual Port Types-snt}{Section@tie 14.12.1}
@xrdef{Textual Port Primitives-pg}{239}
@xrdef{Textual Port Types-pg}{239}
@xrdef{Constructors and Accessors for Textual Ports-title}{Constructors and Accessors for Textual Ports}
@xrdef{Constructors and Accessors for Textual Ports-snt}{Section@tie 14.12.2}
@xrdef{Constructors and Accessors for Textual Ports-pg}{240}
@xrdef{Textual Input Port Operations-title}{Textual Input Port Operations}
@xrdef{Textual Input Port Operations-snt}{Section@tie 14.12.3}
@xrdef{Textual Input Port Operations-pg}{241}
@xrdef{Textual Output Port Operations-title}{Textual Output Port Operations}
@xrdef{Textual Output Port Operations-snt}{Section@tie 14.12.4}
@xrdef{Textual Output Port Operations-pg}{243}
@xrdef{Parser Buffers-title}{Parser Buffers}
@xrdef{Parser Buffers-snt}{Section@tie 14.13}
@xrdef{Parser Buffers-pg}{244}
@xrdef{Parser Language-title}{Parser Language}
@xrdef{Parser Language-snt}{Section@tie 14.14}
@xrdef{Parser Language-pg}{247}
@xrdef{with-pointer example-title}{Parser Language}
@xrdef{with-pointer example-snt}{}
@xrdef{with-pointer example-pg}{248}
@xrdef{*Matcher-title}{*Matcher}
@xrdef{*Matcher-snt}{Section@tie 14.14.1}
@xrdef{*Matcher-pg}{249}
@xrdef{*Parser-title}{*Parser}
@xrdef{*Parser-snt}{Section@tie 14.14.2}
@xrdef{*Parser-pg}{252}
@xrdef{Parser-language Macros-title}{Parser-language Macros}
@xrdef{Parser-language Macros-snt}{Section@tie 14.14.3}
@xrdef{Parser-language Macros-pg}{255}
@xrdef{XML Support-title}{XML Support}
@xrdef{XML Support-snt}{Section@tie 14.15}
@xrdef{XML Input-title}{XML Input}
@xrdef{XML Input-snt}{Section@tie 14.15.1}
@xrdef{XML Support-pg}{256}
@xrdef{XML Input-pg}{256}
@xrdef{XML Output-title}{XML Output}
@xrdef{XML Output-snt}{Section@tie 14.15.2}
@xrdef{XML Output-pg}{257}
@xrdef{XML Names-title}{XML Names}
@xrdef{XML Names-snt}{Section@tie 14.15.3}
@xrdef{XML Names-pg}{258}
@xrdef{XML Structure-title}{XML Structure}
@xrdef{XML Structure-snt}{Section@tie 14.15.4}
@xrdef{XML Structure-pg}{260}
@xrdef{Operating-System Interface-title}{Operating-System Interface}
@xrdef{Operating-System Interface-snt}{Chapter@tie 15}
@xrdef{Pathnames-title}{Pathnames}
@xrdef{Pathnames-snt}{Section@tie 15.1}
@xrdef{Operating-System Interface-pg}{265}
@xrdef{Pathnames-pg}{265}
@xrdef{Filenames and Pathnames-title}{Filenames and Pathnames}
@xrdef{Filenames and Pathnames-snt}{Section@tie 15.1.1}
@xrdef{Filenames and Pathnames-pg}{266}
@xrdef{Components of Pathnames-title}{Components of Pathnames}
@xrdef{Components of Pathnames-snt}{Section@tie 15.1.2}
@xrdef{Components of Pathnames-pg}{267}
@xrdef{Operations on Pathnames-title}{Operations on Pathnames}
@xrdef{Operations on Pathnames-snt}{Section@tie 15.1.3}
@xrdef{Operations on Pathnames-pg}{270}
@xrdef{Miscellaneous Pathnames-title}{Miscellaneous Pathname Procedures}
@xrdef{Miscellaneous Pathnames-snt}{Section@tie 15.1.4}
@xrdef{Miscellaneous Pathnames-pg}{273}
@xrdef{Working Directory-title}{Working Directory}
@xrdef{Working Directory-snt}{Section@tie 15.2}
@xrdef{Working Directory-pg}{274}
@xrdef{File Manipulation-title}{File Manipulation}
@xrdef{File Manipulation-snt}{Section@tie 15.3}
@xrdef{File Manipulation-pg}{275}
@xrdef{Directory Reader-title}{Directory Reader}
@xrdef{Directory Reader-snt}{Section@tie 15.4}
@xrdef{Date and Time-title}{Date and Time}
@xrdef{Date and Time-snt}{Section@tie 15.5}
@xrdef{Directory Reader-pg}{281}
@xrdef{Date and Time-pg}{281}
@xrdef{Universal Time-title}{Universal Time}
@xrdef{Universal Time-snt}{Section@tie 15.5.1}
@xrdef{Decoded Time-title}{Decoded Time}
@xrdef{Decoded Time-snt}{Section@tie 15.5.2}
@xrdef{Universal Time-pg}{282}
@xrdef{Decoded Time-pg}{282}
@xrdef{File Time-title}{File Time}
@xrdef{File Time-snt}{Section@tie 15.5.3}
@xrdef{Time-Format Conversion-title}{Time-Format Conversion}
@xrdef{Time-Format Conversion-snt}{Section@tie 15.5.4}
@xrdef{File Time-pg}{285}
@xrdef{Time-Format Conversion-pg}{285}
@xrdef{External Representation of Time-title}{External Representation of Time}
@xrdef{External Representation of Time-snt}{Section@tie 15.5.5}
@xrdef{External Representation of Time-pg}{288}
@xrdef{Machine Time-title}{Machine Time}
@xrdef{Machine Time-snt}{Section@tie 15.6}
@xrdef{Machine Time-pg}{289}
@xrdef{Subprocesses-title}{Subprocesses}
@xrdef{Subprocesses-snt}{Section@tie 15.7}
@xrdef{Subprocess Procedures-title}{Subprocess Procedures}
@xrdef{Subprocess Procedures-snt}{Section@tie 15.7.1}
@xrdef{Subprocesses-pg}{291}
@xrdef{Subprocess Procedures-pg}{291}
@xrdef{Subprocess Conditions-title}{Subprocess Conditions}
@xrdef{Subprocess Conditions-snt}{Section@tie 15.7.2}
@xrdef{Subprocess Options-title}{Subprocess Options}
@xrdef{Subprocess Options-snt}{Section@tie 15.7.3}
@xrdef{Subprocess Conditions-pg}{292}
@xrdef{Subprocess Options-pg}{292}
@xrdef{TCP Sockets-title}{TCP Sockets}
@xrdef{TCP Sockets-snt}{Section@tie 15.8}
@xrdef{TCP Sockets-pg}{295}
@xrdef{Miscellaneous OS Facilities-title}{Miscellaneous OS Facilities}
@xrdef{Miscellaneous OS Facilities-snt}{Section@tie 15.9}
@xrdef{Miscellaneous OS Facilities-pg}{297}
@xrdef{Error System-title}{Error System}
@xrdef{Error System-snt}{Chapter@tie 16}
@xrdef{Error System-pg}{299}
@xrdef{Condition Signalling-title}{Condition Signalling}
@xrdef{Condition Signalling-snt}{Section@tie 16.1}
@xrdef{Condition Signalling-pg}{300}
@xrdef{Error Messages-title}{Error Messages}
@xrdef{Error Messages-snt}{Section@tie 16.2}
@xrdef{Error Messages-pg}{302}
@xrdef{Condition Handling-title}{Condition Handling}
@xrdef{Condition Handling-snt}{Section@tie 16.3}
@xrdef{Condition Handling-pg}{303}
@xrdef{Restarts-title}{Restarts}
@xrdef{Restarts-snt}{Section@tie 16.4}
@xrdef{Restarts-pg}{305}
@xrdef{Establishing Restart Code-title}{Establishing Restart Code}
@xrdef{Establishing Restart Code-snt}{Section@tie 16.4.1}
@xrdef{Establishing Restart Code-pg}{306}
@xrdef{Invoking Standard Restart Code-title}{Invoking Standard Restart Code}
@xrdef{Invoking Standard Restart Code-snt}{Section@tie 16.4.2}
@xrdef{Invoking Standard Restart Code-pg}{307}
@xrdef{Finding and Invoking General Restart Code-title}{Finding and Invoking General Restart Code}
@xrdef{Finding and Invoking General Restart Code-snt}{Section@tie 16.4.3}
@xrdef{Finding and Invoking General Restart Code-pg}{309}
@xrdef{The Named Restart Abstraction-title}{The Named Restart Abstraction}
@xrdef{The Named Restart Abstraction-snt}{Section@tie 16.4.4}
@xrdef{Condition Instances-title}{Condition Instances}
@xrdef{Condition Instances-snt}{Section@tie 16.5}
@xrdef{Generating Operations on Conditions-title}{Generating Operations on Conditions}
@xrdef{Generating Operations on Conditions-snt}{Section@tie 16.5.1}
@xrdef{The Named Restart Abstraction-pg}{310}
@xrdef{Condition Instances-pg}{310}
@xrdef{Generating Operations on Conditions-pg}{311}
@xrdef{Condition State-title}{Condition Abstraction}
@xrdef{Condition State-snt}{Section@tie 16.5.2}
@xrdef{Simple Condition Instance Operations-title}{Simple Operations on Condition Instances}
@xrdef{Simple Condition Instance Operations-snt}{Section@tie 16.5.3}
@xrdef{Condition State-pg}{312}
@xrdef{Condition Types-title}{Condition Types}
@xrdef{Condition Types-snt}{Section@tie 16.6}
@xrdef{Simple Condition Instance Operations-pg}{313}
@xrdef{Condition Types-pg}{313}
@xrdef{Taxonomy-title}{Condition-Type Taxonomy}
@xrdef{Taxonomy-snt}{Section@tie 16.7}
@xrdef{Taxonomy-pg}{314}
@xrdef{Graphics-title}{Graphics}
@xrdef{Graphics-snt}{Chapter@tie 17}
@xrdef{Opening and Closing of Graphics Devices-title}{Opening and Closing of Graphics Devices}
@xrdef{Opening and Closing of Graphics Devices-snt}{Section@tie 17.1}
@xrdef{Graphics-pg}{323}
@xrdef{Opening and Closing of Graphics Devices-pg}{323}
@xrdef{Coordinates for Graphics-title}{Coordinates for Graphics}
@xrdef{Coordinates for Graphics-snt}{Section@tie 17.2}
@xrdef{Drawing Graphics-title}{Drawing Graphics}
@xrdef{Drawing Graphics-snt}{Section@tie 17.3}
@xrdef{Coordinates for Graphics-pg}{324}
@xrdef{Drawing Graphics-pg}{324}
@xrdef{Characteristics of Graphics Output-title}{Characteristics of Graphics Output}
@xrdef{Characteristics of Graphics Output-snt}{Section@tie 17.4}
@xrdef{Characteristics of Graphics Output-pg}{326}
@xrdef{Buffering of Graphics Output-title}{Buffering of Graphics Output}
@xrdef{Buffering of Graphics Output-snt}{Section@tie 17.5}
@xrdef{Clipping of Graphics Output-title}{Clipping of Graphics Output}
@xrdef{Clipping of Graphics Output-snt}{Section@tie 17.6}
@xrdef{Buffering of Graphics Output-pg}{327}
@xrdef{Custom Graphics Operations-title}{Custom Graphics Operations}
@xrdef{Custom Graphics Operations-snt}{Section@tie 17.7}
@xrdef{Images-title}{Images}
@xrdef{Images-snt}{Section@tie 17.8}
@xrdef{Clipping of Graphics Output-pg}{328}
@xrdef{Custom Graphics Operations-pg}{328}
@xrdef{Images-pg}{328}
@xrdef{X Graphics-title}{X Graphics}
@xrdef{X Graphics-snt}{Section@tie 17.9}
@xrdef{X Graphics Type-title}{X Graphics Type}
@xrdef{X Graphics Type-snt}{Section@tie 17.9.1}
@xrdef{X Graphics-pg}{329}
@xrdef{Utilities for X Graphics-title}{Utilities for X Graphics}
@xrdef{Utilities for X Graphics-snt}{Section@tie 17.9.2}
@xrdef{X Graphics Type-pg}{330}
@xrdef{Utilities for X Graphics-pg}{330}
@xrdef{Custom Operations on X Graphics Devices-title}{Custom Operations on X Graphics Devices}
@xrdef{Custom Operations on X Graphics Devices-snt}{Section@tie 17.9.3}
@xrdef{Custom Operations on X Graphics Devices-pg}{331}
@xrdef{Win32 Graphics-title}{Win32 Graphics}
@xrdef{Win32 Graphics-snt}{Section@tie 17.10}
@xrdef{Win32 Graphics Type-title}{Win32 Graphics Type}
@xrdef{Win32 Graphics Type-snt}{Section@tie 17.10.1}
@xrdef{Custom Operations for Win32 Graphics-title}{Custom Operations for Win32 Graphics}
@xrdef{Custom Operations for Win32 Graphics-snt}{Section@tie 17.10.2}
@xrdef{Win32 Graphics-pg}{334}
@xrdef{Win32 Graphics Type-pg}{334}
@xrdef{Custom Operations for Win32 Graphics-pg}{335}
@xrdef{Win32 Package Reference-title}{Win32 Package Reference}
@xrdef{Win32 Package Reference-snt}{Chapter@tie 18}
@xrdef{Win32 Package Overview-title}{Overview}
@xrdef{Win32 Package Overview-snt}{Section@tie 18.1}
@xrdef{Foreign function interface-title}{Foreign Function Interface}
@xrdef{Foreign function interface-snt}{Section@tie 18.2}
@xrdef{Win32 Package Reference-pg}{337}
@xrdef{Win32 Package Overview-pg}{337}
@xrdef{Foreign function interface-pg}{337}
@xrdef{Windows Types-title}{Windows Types}
@xrdef{Windows Types-snt}{Section@tie 18.2.1}
@xrdef{Windows Types-pg}{338}
@xrdef{Windows Foreign Procedures-title}{Windows Foreign Procedures}
@xrdef{Windows Foreign Procedures-snt}{Section@tie 18.2.2}
@xrdef{Windows Foreign Procedures-pg}{340}
@xrdef{Win32 API names and procedures-title}{Win32 API names and procedures}
@xrdef{Win32 API names and procedures-snt}{Section@tie 18.2.3}
@xrdef{Win32 API names and procedures-pg}{342}
@xrdef{Device Independent Bitmap Utilities-title}{Device Independent Bitmap Utilities}
@xrdef{Device Independent Bitmap Utilities-snt}{Section@tie 18.3}
@xrdef{DIB procedures-title}{DIB procedures}
@xrdef{DIB procedures-snt}{Section@tie 18.3.1}
@xrdef{Device Independent Bitmap Utilities-pg}{343}
@xrdef{DIB procedures-pg}{344}
@xrdef{Other parts of the DIB Utilities implementation-title}{Other parts of the DIB Utilities implementation}
@xrdef{Other parts of the DIB Utilities implementation-snt}{Section@tie 18.3.2}
@xrdef{Other parts of the DIB Utilities implementation-pg}{345}
@xrdef{Standards Support-title}{Standards Support}
@xrdef{Standards Support-snt}{Chapter@tie 19}
@xrdef{R7RS-title}{Revised@sup {7} Report on the Algorithmic Language Scheme}
@xrdef{R7RS-snt}{Section@tie 19.1}
@xrdef{Standards Support-pg}{347}
@xrdef{R7RS-pg}{347}
@xrdef{SRFI 1-title}{SRFI 1: List Library}
@xrdef{SRFI 1-snt}{Section@tie 19.2}
@xrdef{SRFI 1-pg}{350}
@xrdef{SRFI 2-title}{SRFI 2: @code {and-let*}}
@xrdef{SRFI 2-snt}{Section@tie 19.3}
@xrdef{SRFI 8-title}{SRFI 8: @code {receive}}
@xrdef{SRFI 8-snt}{Section@tie 19.4}
@xrdef{SRFI 9-title}{SRFI 9: Record Types}
@xrdef{SRFI 9-snt}{Section@tie 19.5}
@xrdef{SRFI 2-pg}{351}
@xrdef{SRFI 8-pg}{351}
@xrdef{SRFI 14-title}{SRFI 14: Character-set Library}
@xrdef{SRFI 14-snt}{Section@tie 19.6}
@xrdef{SRFI 9-pg}{352}
@xrdef{SRFI 14-pg}{352}
@xrdef{SRFI 23-title}{SRFI 23: Error Reporting Mechanism}
@xrdef{SRFI 23-snt}{Section@tie 19.7}
@xrdef{SRFI 27-title}{SRFI 27: Sources of Random Bits}
@xrdef{SRFI 27-snt}{Section@tie 19.8}
@xrdef{SRFI 39-title}{SRFI 39: Parameter Objects}
@xrdef{SRFI 39-snt}{Section@tie 19.9}
@xrdef{SRFI 23-pg}{353}
@xrdef{SRFI 27-pg}{353}
@xrdef{SRFI 69-title}{SRFI 69: Basic Hash Tables}
@xrdef{SRFI 69-snt}{Section@tie 19.10}
@xrdef{SRFI 115-title}{SRFI 115: Scheme Regular Expressions}
@xrdef{SRFI 115-snt}{Section@tie 19.11}
@xrdef{SRFI 39-pg}{354}
@xrdef{SRFI 69-pg}{354}
@xrdef{SRFI 115-pg}{354}
@xrdef{SRFI 124-title}{SRFI 124: Ephemerons}
@xrdef{SRFI 124-snt}{Section@tie 19.12}
@xrdef{SRFI 125-title}{SRFI 125: Intermediate Hash Tables}
@xrdef{SRFI 125-snt}{Section@tie 19.13}
@xrdef{SRFI 124-pg}{355}
@xrdef{SRFI 125-pg}{355}
@xrdef{SRFI 128-title}{SRFI 128: Comparators (reduced)}
@xrdef{SRFI 128-snt}{Section@tie 19.14}
@xrdef{SRFI 128-pg}{356}
@xrdef{SRFI 131-title}{SRFI 131: ERRR5RS Record Syntax (reduced)}
@xrdef{SRFI 131-snt}{Section@tie 19.15}
@xrdef{SRFI 133-title}{SRFI 133: Vector Library (R7RS-compatible)}
@xrdef{SRFI 133-snt}{Section@tie 19.16}
@xrdef{SRFI 131-pg}{357}
@xrdef{SRFI 133-pg}{357}
@xrdef{SRFI 140-title}{SRFI 140: Immutable Strings}
@xrdef{SRFI 140-snt}{Section@tie 19.17}
@xrdef{SRFI 140-pg}{358}
@xrdef{SRFI 143-title}{SRFI 143: Fixnums}
@xrdef{SRFI 143-snt}{Section@tie 19.18}
@xrdef{SRFI 143-pg}{359}
@xrdef{SRFI 158-title}{SRFI 158: Generators and Accumulators}
@xrdef{SRFI 158-snt}{Section@tie 19.19}
@xrdef{SRFI 158-pg}{360}
@xrdef{GNU Free Documentation License-title}{GNU Free Documentation License}
@xrdef{GNU Free Documentation License-snt}{Appendix@tie @char65{}}
@xrdef{GNU Free Documentation License-pg}{361}
@xrdef{Binding Index-title}{Binding Index}
@xrdef{Binding Index-snt}{Appendix@tie @char66{}}
@xrdef{Binding Index-pg}{369}
@xrdef{Concept Index-title}{Concept Index}
@xrdef{Concept Index-snt}{Appendix@tie @char67{}}
@xrdef{Concept Index-pg}{391}
